…
    ## Rows: 52179 Columns: 12
    ## ── Column specification ────────────────────────────────────────────────────────
    ## Delimiter: ","
    ## chr (9): uid, victim_last, victim_first, victim_race, victim_age, victim_sex...
    ## dbl (3): reported_date, lat, lon
    ## 
    ## ℹ Use `spec()` to retrieve the full column specification for this data.
    ## ℹ Specify the column types or set `show_col_types = FALSE` to quiet this message.

``` r
homicide
```

    ## # A tibble: 39,320 × 14
    ##    uid   repor…¹ victi…² victi…³ victi…⁴ victi…⁵ victi…⁶ city  state   lat   lon
    ##    <chr>   <dbl> <chr>   <chr>   <chr>     <dbl> <chr>   <chr> <chr> <dbl> <dbl>
    ##  1 Alb-…  2.01e7 SATTER… VIVIANA White        15 Female  Albu… NM     35.1 -107.
    ##  2 Alb-…  2.01e7 MULA    VIVIAN  White        72 Female  Albu… NM     35.1 -107.
    ##  3 Alb-…  2.01e7 BOOK    GERALD… White        91 Female  Albu… NM     35.2 -107.
    ##  4 Alb-…  2.01e7 MARTIN… GUSTAVO White        56 Male    Albu… NM     35.1 -107.
    ##  5 Alb-…  2.01e7 GRAY    STEFAN… White        43 Female  Albu… NM     35.1 -107.
    ##  6 Alb-…  2.01e7 BRITO   ELIZAB… White        22 Female  Albu… NM     35.1 -107.
    ##  7 Alb-…  2.01e7 KING    TEVION  Black        15 Male    Albu… NM     35.1 -107.
    ##  8 Alb-…  2.01e7 BOYKIN  CEDRIC  Black        25 Male    Albu… NM     35.1 -107.
    ##  9 Alb-…  2.01e7 BARRAG… MIGUEL  White        20 Male    Albu… NM     35.1 -107.
    ## 10 Alb-…  2.01e7 WRONSKI VIOLA   White        88 Female  Albu… NM     35.1 -107.
    ## # … with 39,310 more rows, 3 more variables: disposition <chr>,
    ## #   city_state <chr>, solve_status <fct>, and abbreviated variable names
    ## #   ¹​reported_date, ²​victim_last, ³​victim_first, ⁴​victim_race, ⁵​victim_age,
    ## #   ⁶​victim_sex
…
  return(result)

  }
 
# Apply the function to each city state
logistic_reg_city_state = tibble(city_state = unique(homicide$city_state),
       result = map(city_state, fit_logistic)) %>% 
  unnest()


logistic_reg_city_state
```

    ## # A tibble: 47 × 5
    ##    city_state      term              OR lower_ci upper_ci
    ##    <chr>           <chr>          <dbl>    <dbl>    <dbl>
    ##  1 Albuquerque, NM victim_sexMale 1.73     0.814    3.70 
    ##  2 Atlanta, GA     victim_sexMale 1.00     0.684    1.46 
    ##  3 Baltimore, MD   victim_sexMale 0.426    0.325    0.558
    ##  4 Baton Rouge, LA victim_sexMale 0.381    0.209    0.695
    ##  5 Birmingham, AL  victim_sexMale 0.873    0.576    1.32 
    ##  6 Boston, MA      victim_sexMale 0.665    0.352    1.26 
    ##  7 Buffalo, NY     victim_sexMale 0.522    0.291    0.939
    ##  8 Charlotte, NC   victim_sexMale 0.884    0.557    1.40 
    ##  9 Chicago, IL     victim_sexMale 0.410    0.336    0.501
    ## 10 Cincinnati, OH  victim_sexMale 0.400    0.236    0.677
    ## # … with 37 more rows
…
    ## Rows: 4342 Columns: 20
    ## ── Column specification ────────────────────────────────────────────────────────
    ## Delimiter: ","
    ## dbl (20): babysex, bhead, blength, bwt, delwt, fincome, frace, gaweeks, malf...
    ## 
    ## ℹ Use `spec()` to retrieve the full column specification for this data.
    ## ℹ Specify the column types or set `show_col_types = FALSE` to quiet this message.

``` r
birthweight
```

    ## # A tibble: 4,342 × 20
    ##    babysex bhead blength   bwt delwt fincome frace gaweeks malform menarche
    ##      <dbl> <dbl>   <dbl> <dbl> <dbl>   <dbl> <dbl>   <dbl>   <dbl>    <dbl>
    ##  1       2    34      51  3629   177      35     1    39.9       0       13
    ##  2       1    34      48  3062   156      65     2    25.9       0       14
    ##  3       2    36      50  3345   148      85     1    39.9       0       12
    ##  4       1    34      52  3062   157      55     1    40         0       14
    ##  5       2    34      52  3374   156       5     1    41.6       0       13
    ##  6       1    33      52  3374   129      55     1    40.7       0       12
    ##  7       2    33      46  2523   126      96     2    40.3       0       14
    ##  8       2    33      49  2778   140       5     1    37.4       0       12
    ##  9       1    36      52  3515   146      85     1    40.3       0       11
    ## 10       1    33      50  3459   169      75     2    40.7       0       12
    ## # … with 4,332 more rows, and 10 more variables: mheight <dbl>, momage <dbl>,
    ## #   mrace <dbl>, parity <dbl>, pnumlbw <dbl>, pnumsga <dbl>, ppbmi <dbl>,
    ## #   ppwt <dbl>, smoken <dbl>, wtgain <dbl>
…
